[
{
    "fields": {
        "meta_keyw": "\u0434\u043e\u0441\u043a\u0430 \u043e\u0431\u044a\u044f\u0432\u043b\u0435\u043d\u0438\u0439 \u043a\u0430\u0437\u0430\u0445\u0441\u0442\u0430\u043d, \u0438\u043d\u0442\u0435\u0440\u043d\u0435\u0442-\u043c\u0430\u0433\u0430\u0437\u0438\u043d, \u0442\u0435\u0445\u043d\u0438\u043a\u0430, \u043e\u0434\u0435\u0436\u0434\u0430",
        "meta_desc": "LCShop - \u044d\u0442\u043e \u0442\u0430\u043a\u043e\u0439 \u0441\u0430\u0439\u0442",
        "description": "\u0413\u043b\u043e\u0431\u0430\u043b\u044c\u043d\u044b\u0435 \u043d\u0430\u0441\u0442\u0440\u043e\u0439\u043a\u0438",
        "key": "global",
        "title": "-"
    },
    "model": "site_settings.seosetting",
    "pk": 1
},
{
    "fields": {
        "meta_keyw": "",
        "meta_desc": "",
        "description": "\u0413\u043b\u0430\u0432\u043d\u0430\u044f \u0441\u0442\u0440\u0430\u043d\u0438\u0446\u0430",
        "key": "index",
        "title": "LCShop"
    },
    "model": "site_settings.seosetting",
    "pk": 2
},
{
    "fields": {
        "meta_keyw": "",
        "meta_desc": "",
        "description": "\u0421\u0442\u0440\u0430\u043d\u0438\u0446\u0430 \u043d\u0435 \u043d\u0430\u0439\u0434\u0435\u043d\u0430",
        "key": "404",
        "title": ""
    },
    "model": "site_settings.seosetting",
    "pk": 3
},
{
    "fields": {
        "meta_keyw": "",
        "meta_desc": "",
        "description": "\u0421\u043b\u0443\u0436\u0431\u0430 \u043f\u043e\u0434\u0434\u0435\u0440\u0436\u043a\u0438",
        "key": "support",
        "title": ""
    },
    "model": "site_settings.seosetting",
    "pk": 4
},
{
    "fields": {
        "meta_keyw": "",
        "meta_desc": "",
        "description": "\u041f\u0440\u043e\u0434\u0443\u043a\u0446\u0438\u044f",
        "key": "catalog",
        "title": ""
    },
    "model": "site_settings.seosetting",
    "pk": 5
},
{
    "fields": {
        "meta_keyw": "",
        "meta_desc": "",
        "description": "\u041c\u043e\u0439 \u043f\u0440\u043e\u0444\u0438\u043b\u044c",
        "key": "profile",
        "title": ""
    },
    "model": "site_settings.seosetting",
    "pk": 6
},
{
    "fields": {
        "meta_keyw": "",
        "meta_desc": "",
        "description": "\u0420\u0435\u0433\u0438\u0441\u0442\u0440\u0430\u0446\u0438\u044f",
        "key": "registration",
        "title": ""
    },
    "model": "site_settings.seosetting",
    "pk": 7
},
{
    "fields": {
        "meta_keyw": "",
        "meta_desc": "",
        "description": "\u0420\u0435\u0433\u0438\u0441\u0442\u0440\u0430\u0446\u0438\u044f \u043f\u0440\u043e\u0434\u0430\u0432\u0446\u0430",
        "key": "seller_registration",
        "title": ""
    },
    "model": "site_settings.seosetting",
    "pk": 8
},
{
    "fields": {
        "meta_keyw": "",
        "meta_desc": "",
        "description": "\u041a\u043e\u0440\u0437\u0438\u043d\u0430",
        "key": "cart",
        "title": ""
    },
    "model": "site_settings.seosetting",
    "pk": 9
},
{
    "fields": {
        "meta_keyw": "",
        "meta_desc": "",
        "description": "\u041e\u0444\u043e\u0440\u043c\u043b\u0435\u043d\u0438\u0435 \u0437\u0430\u043a\u0430\u0437\u0430",
        "key": "checkout",
        "title": ""
    },
    "model": "site_settings.seosetting",
    "pk": 10
},
{
    "fields": {
        "meta_keyw": "",
        "meta_desc": "",
        "description": "\u041f\u043e\u0438\u0441\u043a",
        "key": "search",
        "title": ""
    },
    "model": "site_settings.seosetting",
    "pk": 11
},
{
    "fields": {
        "meta_keyw": "",
        "meta_desc": "",
        "description": "\u041e\u0448\u0438\u0431\u043a\u0430 \u0441\u0435\u0440\u0432\u0435\u0440\u0430",
        "key": "500",
        "title": ""
    },
    "model": "site_settings.seosetting",
    "pk": 12
},
{
    "fields": {
        "meta_keyw": "",
        "meta_desc": "",
        "description": "\u0410\u043a\u0442\u0438\u0432\u0430\u0446\u0438\u044f",
        "key": "activation",
        "title": ""
    },
    "model": "site_settings.seosetting",
    "pk": 13
},
{
    "fields": {
        "meta_keyw": "",
        "meta_desc": "",
        "description": "\u0412\u0445\u043e\u0434",
        "key": "login",
        "title": ""
    },
    "model": "site_settings.seosetting",
    "pk": 14
},
{
    "fields": {
        "meta_keyw": "",
        "meta_desc": "",
        "description": "\u0412\u044b\u0445\u043e\u0434",
        "key": "logout",
        "title": ""
    },
    "model": "site_settings.seosetting",
    "pk": 15
},
{
    "fields": {
        "meta_keyw": "",
        "meta_desc": "",
        "description": "\u0411\u043b\u043e\u0433",
        "key": "blog",
        "title": ""
    },
    "model": "site_settings.seosetting",
    "pk": 16
},
{
    "fields": {
        "meta_keyw": "",
        "meta_desc": "",
        "description": "\u0421\u0440\u0430\u0432\u043d\u0435\u043d\u0438\u0435 \u0442\u043e\u0432\u0430\u0440\u043e\u0432 \u2014 LCShop",
        "key": "profile_compare",
        "title": ""
    },
    "model": "site_settings.seosetting",
    "pk": 17
},
{
    "fields": {
        "meta_keyw": "",
        "meta_desc": "",
        "description": "\u0420\u0435\u0434\u0430\u043a\u0442\u0438\u0440\u043e\u0432\u0430\u0442\u044c \u043f\u0440\u043e\u0444\u0438\u043b\u044c \u2014 LCShop",
        "key": "profile_edit",
        "title": ""
    },
    "model": "site_settings.seosetting",
    "pk": 18
},
{
    "fields": {
        "meta_keyw": "",
        "meta_desc": "",
        "description": "\u0418\u0437\u0431\u0440\u0430\u043d\u043d\u043e\u0435 \u2014 LCShop",
        "key": "profile_favorites",
        "title": ""
    },
    "model": "site_settings.seosetting",
    "pk": 19
},
{
    "fields": {
        "meta_keyw": "",
        "meta_desc": "",
        "description": "\u041c\u043e\u0438 \u0437\u0430\u043a\u0430\u0437\u044b \u2014 LCShop",
        "key": "profile_orders",
        "title": ""
    },
    "model": "site_settings.seosetting",
    "pk": 20
},
{
    "fields": {
        "meta_keyw": "",
        "meta_desc": "",
        "description": "\u0423\u0434\u0430\u043b\u0438\u0442\u044c \u043f\u0440\u043e\u0444\u0438\u043b\u044c \u2014 LCShop",
        "key": "profile_remove",
        "title": ""
    },
    "model": "site_settings.seosetting",
    "pk": 21
},
{
    "fields": {
        "meta_keyw": "",
        "meta_desc": "",
        "description": "\u041c\u043e\u0438 \u043e\u0442\u0437\u044b\u0432\u044b \u2014 LCShop",
        "key": "profile_reviews",
        "title": ""
    },
    "model": "site_settings.seosetting",
    "pk": 22
},
{
    "fields": {
        "meta_keyw": "",
        "meta_desc": "",
        "description": "\u041c\u043e\u0438 \u0436\u0435\u043b\u0430\u043d\u0438\u044f \u2014 LCShop",
        "key": "profile_wishlist",
        "title": ""
    },
    "model": "site_settings.seosetting",
    "pk": 23
}
]
