[
{
    "fields": {
        "value": "+(222) 222-22-22",
        "key": "header_phone_2",
        "description": "\u0428\u0430\u043f\u043a\u0430 \u0441\u0430\u0439\u0442\u0430: \u0442\u0435\u043b\u0435\u0444\u043e\u043d #2"
    },
    "model": "site_settings.setting",
    "pk": 1
},
{
    "fields": {
        "value": "example",
        "key": "header_skype",
        "description": "\u0428\u0430\u043f\u043a\u0430 \u0441\u0430\u0439\u0442\u0430: \u0441\u043a\u0430\u0439\u043f"
    },
    "model": "site_settings.setting",
    "pk": 2
},
{
    "fields": {
        "value": "email@example.com",
        "key": "header_email",
        "description": "\u0428\u0430\u043f\u043a\u0430 \u0441\u0430\u0439\u0442\u0430: email"
    },
    "model": "site_settings.setting",
    "pk": 3
},
{
    "fields": {
        "value": "valych@htdt.ru\r\nanother@email.com",
        "key": "feedback_email",
        "description": "Email \u0434\u043b\u044f \u043e\u0442\u043f\u0440\u0430\u0432\u043a\u0438 \u0443\u0432\u0435\u0434\u043e\u043c\u043b\u0435\u043d\u0438\u0439 \u0441 \u0441\u0430\u0439\u0442\u0430 (\u043c\u043e\u0436\u043d\u043e \u043d\u0435\u0441\u043a\u043e\u043b\u044c\u043a\u043e, \u043a\u0430\u0436\u0434\u044b\u0439 \u043d\u0430 \u043d\u043e\u0432\u043e\u0439 \u0441\u0442\u0440\u043e\u043a\u0435)"
    },
    "model": "site_settings.setting",
    "pk": 4
},
{
    "fields": {
        "value": "+(111) 111-11-11",
        "key": "header_phone_1",
        "description": "\u0428\u0430\u043f\u043a\u0430 \u0441\u0430\u0439\u0442\u0430: \u0442\u0435\u043b\u0435\u0444\u043e\u043d #1"
    },
    "model": "site_settings.setting",
    "pk": 5
}
]
